Date,MegabytesUsage
12/18/2023,39
12/7/2023,51
12/27/2023,27
12/29/2023,46
12/9/2023,38
12/1/2023,27
12/13/2023,88
12/9/2023,100
12/3/2023,84
12/29/2023,34
12/4/2023,41
12/4/2023,74
12/2/2023,100
12/19/2023,29
12/19/2023,9
12/1/2023,66
12/12/2023,17
12/7/2023,50
12/17/2023,76
12/6/2023,34
12/26/2023,85
12/10/2023,56
12/28/2023,44
12/19/2023,42
12/17/2023,74
12/22/2023,16
12/8/2023,87
12/21/2023,31
12/10/2023,6
12/24/2023,33
12/22/2023,25
12/19/2023,62
12/23/2023,14
12/3/2023,16
12/15/2023,35
12/19/2023,42
12/26/2023,51
12/11/2023,16
12/27/2023,35
12/16/2023,3
12/25/2023,63
12/25/2023,24
12/2/2023,31
12/20/2023,18
12/10/2023,67
12/21/2023,63
12/27/2023,7
12/9/2023,65
12/20/2023,12
12/13/2023,96
12/12/2023,100
12/23/2023,78
12/2/2023,58
12/20/2023,28
12/29/2023,62
12/14/2023,25
12/3/2023,44
12/14/2023,18
12/7/2023,9
12/4/2023,70
12/10/2023,41
12/14/2023,41
12/1/2023,34
12/5/2023,82
12/7/2023,49
12/20/2023,88
12/5/2023,82
12/22/2023,62
12/10/2023,67
12/14/2023,11
12/24/2023,30
12/27/2023,92
12/23/2023,4
12/1/2023,69
12/29/2023,2
12/25/2023,35
12/3/2023,80
12/20/2023,38
12/19/2023,63
12/7/2023,63
12/2/2023,49
12/4/2023,67
12/16/2023,86
12/8/2023,22
12/19/2023,46
12/16/2023,4
12/14/2023,90
12/1/2023,7
12/26/2023,79
12/8/2023,79
12/21/2023,92
12/18/2023,3
12/2/2023,29
12/11/2023,62
12/28/2023,82
12/25/2023,95
12/21/2023,6
12/26/2023,7
12/24/2023,91
12/9/2023,77
